{
    "brain": [
        {
            "nickName": "lh",
            "name": "Middle frontal gyrus",
            "description": "Middle frontal gyrus",
            "color": "#FF99CC",
            "opacity": "0.3",
            "url": "models3d/default/meshes/lh.pial.obj"
        },
        {
            "nickName": "rh",
            "name": "Middle frontal gyrus",
            "description": "Middle frontal gyrus",
            "color": "#FF99CC",
            "opacity": "0.3",
            "url": "models3d/default/meshes/rh.pial.obj"
        },
        {
            "nickName": "3vent",
            "name": "Third ventricule",
            "description": "Third ventricule",
            "color": "#CCFF66",
            "opacity": "0.3",
            "url": "models3d/default/meshes/3rd-Ventricle.obj"
        },
        {
            "nickName": "4vent",
            "name": "Fourth ventricule",
            "description": "Fourth ventricule",
            "color": "#CCFF33",
            "opacity": "0.3",
            "url": "models3d/default/meshes/4th-Ventricle.obj"
        },
        {
            "nickName": "acar",
            "name": "Accumbens area",
            "description": "Accumbens area",
            "color": "#00FFFF",
            "opacity": "0.3",
            "url": "models3d/default/meshes/Accumbens-area.obj"
        },
        {
            "nickName": "amy",
            "name": "Amygdala",
            "description": "Amygdala",
            "color": "#CC0000",
            "opacity": "0.3",
            "url": "models3d/default/meshes/Amygdala.obj"
        },
        {
            "nickName": "brStem",
            "name": "Brain-Stem",
            "description": "Brain-Stem",
            "color": "#3300CC",
            "opacity": "0.3",
            "url": "models3d/default/meshes/Brain-Stem.obj"
        },
        {
            "nickName": "caud",
            "name": "Caudate",
            "description": "Caudate",
            "color": "#0000FF",
            "opacity": "0.3",
            "url": "models3d/default/meshes/Caudate.obj"
        },
        {
            "nickName": "ccAnt",
            "name": "CC Anterior",
            "description": "CC Anterior",
            "color": "#FF3300",
            "opacity": "0.3",
            "url": "models3d/default/meshes/CC_Anterior.obj"
        },
        {
            "nickName": "ccCent",
            "name": "CC Central",
            "description": "CC Central",
            "color": "#000099",
            "opacity": "0.3",
            "url": "models3d/default/meshes/CC_Central.obj"
        },
        {
            "nickName": "ccMidAnt",
            "name": "CC Mid Anterior",
            "description": "CC Mid Anterior",
            "color": "#CC6633",
            "opacity": "0.3",
            "url": "models3d/default/meshes/CC_Mid_Anterior.obj"
        },
        {
            "nickName": "ccMidPost",
            "name": "CC Mid Posterior",
            "description": "CC Mid Posterior",
            "color": "#CC0000",
            "opacity": "0.3",
            "url": "models3d/default/meshes/CC_Mid_Posterior.obj"
        },
        {
            "nickName": "ccPost",
            "name": "CC Posterior",
            "description": "CC Posterior est responsable de ? ",
            "color": "#FF66FF",
            "opacity": "0.3",
            "url": "models3d/default/meshes/CC_Posterior.obj"
        },
        {
            "nickName": "CcCort",
            "name": "Cerebellum-Cortex",
            "description": "Cerebellum-Cortex",
            "color": "#FF9933",
            "opacity": "0.3",
            "url": "models3d/default/meshes/Cerebellum-Cortex.obj"
        },
        {
            "nickName": "cerWhMat",
            "name": "Cerebellum-White-Matter",
            "description": "Cerebellum WhiteMatter",
            "color": "#66CC00",
            "opacity": "0.3",
            "url": "models3d/default/meshes/Cerebellum-White-Matter.obj"
        },
        {
            "nickName": "hippo",
            "name": "Hippocampus",
            "description": "Hippocampus",
            "color": "#0099FF",
            "opacity": "0.3",
            "url": "models3d/default/meshes/Hippocampus.obj"
        },
        {
            "nickName": "infLatVent",
            "name": "Inf-Lat-Vent",
            "description": "Inferorior Lateral Ventricle",
            "color": "#990066",
            "opacity": "0.3",
            "url": "models3d/default/meshes/Inf-Lat-Vent.obj"
        },
        {
            "nickName": "latVent",
            "name": "Lateral-Ventricle",
            "description": "Lateral-Ventricle",
            "color": "#336699",
            "opacity": "0.3",
            "url": "models3d/default/meshes/Lateral-Ventricle.obj"
        },
        {
            "nickName": "pall",
            "name": "Pallidum",
            "description": "Pallidum",
            "color": "#CC00FF",
            "opacity": "0.3",
            "url": "models3d/default/meshes/Pallidum.obj"
        },
        {
            "nickName": "put",
            "name": "Putamen",
            "description": "Putamen",
            "color": "#333300",
            "opacity": "0.3",
            "url": "models3d/default/meshes/Putamen.obj"
        },
        {
            "nickName": "thala",
            "name": "Thalamus",
            "description": "Thalamus",
            "color": "#339933",
            "opacity": "0.3",
            "url": "models3d/default/meshes/Thalamus-Proper.obj"
        },
        {
            "nickName": "ventDC",
            "name": "VentralDC",
            "description": "VentralDC",
            "color": "#333333",
            "opacity": "0.3",
            "url": "models3d/default/meshes/VentralDC.obj"
        }
    ]
}
