####
#
# OBJ File Generated by Meshlab
#
####
# Object Accumbens-area-resize-v2.obj
#
# Vertices: 78
# Faces: 148
#
####
mtllib ./Accumbens-area-resize-v2.obj.mtl

vn 1.564337 -3.554797 1.492333
v 10.538146 -1.522329 -23.078604 0.752941 0.752941 0.752941
vn -0.840036 -4.884385 3.024930
v 6.408192 -0.174537 -21.223892 0.752941 0.752941 0.752941
vn -1.450011 -3.959365 -0.728584
v 7.580716 -1.637939 -23.563974 0.752941 0.752941 0.752941
vn 2.394480 -2.118131 -2.229287
v 11.394719 -0.568534 -25.305437 0.752941 0.752941 0.752941
vn -4.206171 -2.721882 -0.300370
v 4.431833 0.901662 -21.220484 0.752941 0.752941 0.752941
vn 3.813066 -1.700060 1.118253
v 11.723128 -0.634941 -23.538961 0.752941 0.752941 0.752941
vn -1.589487 -1.300238 -4.463110
v 7.714701 1.920418 -26.890591 0.752941 0.752941 0.752941
vn 2.457660 -3.013830 4.791868
v 7.729159 0.638013 -20.916492 0.752941 0.752941 0.752941
vn 4.266645 -0.745129 3.904701
v 10.660264 2.706465 -21.790287 0.752941 0.752941 0.752941
vn -4.930265 -2.283826 -2.768953
v 5.281185 0.903234 -22.875191 0.752941 0.752941 0.752941
vn 1.913931 -0.344739 -4.221747
v 10.365752 1.977185 -26.913481 0.752941 0.752941 0.752941
vn -0.901236 -0.328138 1.502919
v 4.097030 2.861567 -16.475609 0.752941 0.752941 0.752941
vn 6.080172 0.291733 0.083125
v 11.392324 2.836646 -23.982672 0.752941 0.752941 0.752941
vn 2.768580 1.571843 -3.748415
v 10.745116 5.058345 -25.832413 0.752941 0.752941 0.752941
vn -2.681914 0.621308 -3.718524
v 6.558310 3.446950 -26.467636 0.752941 0.752941 0.752941
vn 2.830189 -0.731597 4.567210
v 5.649867 3.308675 -17.191116 0.752941 0.752941 0.752941
vn -5.777248 0.237355 -1.272179
v 4.247272 2.297555 -21.216162 0.752941 0.752941 0.752941
vn 4.056563 -1.058853 4.603566
v 7.992439 3.563390 -20.024315 0.752941 0.752941 0.752941
vn -4.222086 0.892482 2.710308
v 5.033433 5.971488 -18.065046 0.752941 0.752941 0.752941
vn 5.568324 -0.206290 -0.846622
v 11.536370 6.409303 -23.511763 0.752941 0.752941 0.752941
vn 2.533594 -0.871149 5.105402
v 6.494764 6.869402 -17.802057 0.752941 0.752941 0.752941
vn -4.937852 1.712550 -2.892365
v 5.895073 6.685187 -23.188927 0.752941 0.752941 0.752941
vn 4.224771 -1.047109 4.158988
v 11.089612 7.879273 -21.560863 0.752941 0.752941 0.752941
vn -1.979759 2.364392 -5.314254
v 8.157812 7.542437 -24.402184 0.752941 0.752941 0.752941
vn 4.075488 -1.117031 4.237875
v 9.052125 11.040137 -20.159876 0.752941 0.752941 0.752941
vn -5.494139 1.188486 -1.468970
v 5.100649 10.113326 -20.120344 0.752941 0.752941 0.752941
vn 4.856876 -2.243703 -1.170052
v 12.410360 9.079304 -23.317244 0.752941 0.752941 0.752941
vn 1.761672 1.508194 -5.481407
v 10.287079 7.336407 -24.598167 0.752941 0.752941 0.752941
vn -3.625630 -1.128043 2.448389
v 5.139785 9.865614 -16.918756 0.752941 0.752941 0.752941
vn 3.558026 -1.837152 4.182736
v 6.768692 10.419812 -16.699001 0.752941 0.752941 0.752941
vn 3.039805 -0.401483 -3.827268
v 13.069533 11.238686 -23.711918 0.752941 0.752941 0.752941
vn -0.698234 1.883132 -5.636278
v 10.061838 12.571361 -23.702005 0.752941 0.752941 0.752941
vn -0.339045 -0.024981 0.950412
v 5.262712 11.071991 -14.794886 0.752941 0.752941 0.752941
vn 4.131513 -1.274688 2.077858
v 13.714675 12.002435 -22.306501 0.752941 0.752941 0.752941
vn -3.335449 3.829815 -1.298190
v 7.382937 14.607163 -20.854950 0.752941 0.752941 0.752941
vn -5.329529 2.748171 0.273182
v 5.543303 11.976471 -17.352102 0.752941 0.752941 0.752941
vn 3.031081 1.630959 4.733027
v 10.500978 14.141146 -20.569326 0.752941 0.752941 0.752941
vn -2.449775 2.797090 -3.686269
v 8.235190 14.043160 -22.685354 0.752941 0.752941 0.752941
vn -1.224570 2.137092 4.527741
v 6.632715 12.906881 -16.740919 0.752941 0.752941 0.752941
vn 1.145006 0.690908 -0.157664
v 14.532494 14.617507 -22.682455 0.752941 0.752941 0.752941
vn 0.077292 1.587532 1.688712
v 7.626014 14.635979 -17.025421 0.752941 0.752941 0.752941
vn -0.583708 5.386985 0.131239
v 9.462737 15.150779 -21.314995 0.752941 0.752941 0.752941
vn 0.520774 2.504608 0.259169
v 11.690227 15.807096 -21.709211 0.752941 0.752941 0.752941
vn 1.122414 -3.905589 1.725736
v -8.200032 -0.468876 -19.065388 0.752941 0.752941 0.752941
vn -3.606276 -2.209409 4.065335
v -9.539696 0.923362 -18.459440 0.752941 0.752941 0.752941
vn -1.660115 -3.956280 0.740058
v -11.145186 -1.068532 -21.753475 0.752941 0.752941 0.752941
vn 3.795559 -2.661980 -1.108811
v -7.519208 -0.045528 -21.036549 0.752941 0.752941 0.752941
vn 1.429319 -2.388563 -2.808999
v -9.744962 -0.218015 -24.731329 0.752941 0.752941 0.752941
vn -2.506562 -2.748579 -1.622687
v -11.708131 -0.552388 -23.860966 0.752941 0.752941 0.752941
vn 5.716982 -1.508620 0.856999
v -6.833499 2.356653 -17.217308 0.752941 0.752941 0.752941
vn -4.818294 -1.329480 1.893463
v -12.166763 1.080779 -21.027782 0.752941 0.752941 0.752941
vn 0.408413 -0.772915 1.945676
v -7.317434 2.031208 -15.638846 0.752941 0.752941 0.752941
vn 5.707111 -0.333402 -0.386631
v -6.343203 5.745991 -17.857731 0.752941 0.752941 0.752941
vn -3.715800 -0.360806 -3.139385
v -11.855739 2.032856 -24.972424 0.752941 0.752941 0.752941
vn 0.131265 0.081033 -4.573418
v -10.594514 2.301619 -25.604403 0.752941 0.752941 0.752941
vn 3.629142 1.141537 -4.059576
v -9.398360 3.540334 -24.671316 0.752941 0.752941 0.752941
vn -4.559829 -1.798325 3.597168
v -12.275759 6.706639 -20.501871 0.752941 0.752941 0.752941
vn 4.070580 -0.121391 4.212250
v -7.116648 5.191931 -16.223740 0.752941 0.752941 0.752941
vn -3.804216 -1.438824 3.766648
v -9.312415 6.479856 -18.723013 0.752941 0.752941 0.752941
vn -5.876532 -1.471527 -0.438396
v -12.519648 5.730297 -22.033020 0.752941 0.752941 0.752941
vn -4.074450 0.053340 -4.157220
v -12.088647 6.054290 -23.269209 0.752941 0.752941 0.752941
vn -3.076074 -1.282852 5.016349
v -8.162566 7.624694 -16.138008 0.752941 0.752941 0.752941
vn 0.311441 1.780124 -5.743025
v -10.899701 7.140805 -23.455452 0.752941 0.752941 0.752941
vn 1.448339 0.678582 2.115308
v -6.487612 9.248418 -15.310657 0.752941 0.752941 0.752941
vn 3.923023 1.796354 -4.141592
v -9.279876 7.269298 -22.739113 0.752941 0.752941 0.752941
vn 5.200034 1.151008 -1.165596
v -6.203071 8.435552 -17.644892 0.752941 0.752941 0.752941
vn -3.489327 -2.811262 4.382009
v -11.619477 7.884677 -19.401379 0.752941 0.752941 0.752941
vn -3.549615 -1.394541 -2.619747
v -13.931236 8.516962 -22.509392 0.752941 0.752941 0.752941
vn -0.331701 2.593272 -4.652337
v -12.665501 10.757495 -22.728666 0.752941 0.752941 0.752941
vn -3.926702 -1.552508 4.492136
v -12.745652 9.985073 -19.083303 0.752941 0.752941 0.752941
vn 2.853427 2.669791 -4.259892
v -10.308025 10.618060 -22.082603 0.752941 0.752941 0.752941
vn -2.906962 0.450222 1.376631
v -15.658963 11.257010 -20.489250 0.752941 0.752941 0.752941
vn 2.009270 1.722153 2.855151
v -7.544966 10.676225 -15.814033 0.752941 0.752941 0.752941
vn -2.482497 1.330231 2.785557
v -11.430693 12.716765 -16.301958 0.752941 0.752941 0.752941
vn 1.038129 3.689451 -1.309193
v -9.920714 13.774462 -19.042000 0.752941 0.752941 0.752941
vn -2.137131 1.477160 -1.314703
v -15.544610 11.617823 -21.535631 0.752941 0.752941 0.752941
vn -2.777348 3.867990 0.636894
v -12.938299 12.418679 -19.658642 0.752941 0.752941 0.752941
vn 0.549674 2.087434 1.144053
v -9.499187 14.082677 -16.330069 0.752941 0.752941 0.752941
# 78 vertices, 0 vertices normals


usemtl material_0
f 1//1 2//2 3//3
f 1//1 3//3 4//4
f 5//5 3//3 2//2
f 6//6 1//1 4//4
f 4//4 3//3 7//7
f 1//1 8//8 2//2
f 9//9 1//1 6//6
f 5//5 10//10 3//3
f 7//7 3//3 10//10
f 4//4 7//7 11//11
f 8//8 12//12 2//2
f 12//12 5//5 2//2
f 1//1 9//9 8//8
f 9//9 6//6 13//13
f 6//6 4//4 13//13
f 13//13 4//4 14//14
f 10//10 15//15 7//7
f 4//4 11//11 14//14
f 12//12 8//8 16//16
f 12//12 17//17 5//5
f 8//8 18//18 16//16
f 5//5 17//17 10//10
f 10//10 17//17 15//15
f 8//8 9//9 18//18
f 12//12 19//19 17//17
f 9//9 13//13 20//20
f 13//13 14//14 20//20
f 14//14 11//11 15//15
f 15//15 11//11 7//7
f 19//19 12//12 16//16
f 18//18 21//21 16//16
f 17//17 19//19 22//22
f 9//9 20//20 23//23
f 17//17 22//22 15//15
f 16//16 21//21 19//19
f 9//9 23//23 18//18
f 14//14 15//15 24//24
f 24//24 15//15 22//22
f 21//21 18//18 25//25
f 19//19 26//26 22//22
f 18//18 23//23 25//25
f 23//23 20//20 27//27
f 28//28 27//27 20//20
f 20//20 14//14 28//28
f 28//28 14//14 24//24
f 19//19 21//21 29//29
f 26//26 19//19 29//29
f 29//29 21//21 30//30
f 30//30 21//21 25//25
f 27//27 28//28 31//31
f 28//28 24//24 32//32
f 29//29 30//30 33//33
f 23//23 27//27 34//34
f 26//26 35//35 22//22
f 24//24 22//22 32//32
f 31//31 28//28 32//32
f 33//33 36//36 29//29
f 29//29 36//36 26//26
f 34//34 37//37 23//23
f 23//23 37//37 25//25
f 35//35 38//38 22//22
f 34//34 27//27 31//31
f 32//32 22//22 38//38
f 33//33 30//30 39//39
f 36//36 35//35 26//26
f 34//34 31//31 40//40
f 36//36 33//33 39//39
f 41//41 39//39 30//30
f 37//37 30//30 25//25
f 37//37 41//41 30//30
f 32//32 40//40 31//31
f 39//39 41//41 36//36
f 36//36 41//41 35//35
f 42//42 41//41 37//37
f 40//40 37//37 34//34
f 43//43 37//37 40//40
f 42//42 37//37 43//43
f 38//38 35//35 42//42
f 35//35 41//41 42//42
f 42//42 43//43 38//38
f 43//43 40//40 32//32
f 32//32 38//38 43//43
f 44//44 45//45 46//46
f 47//47 44//44 46//46
f 47//47 46//46 48//48
f 46//46 49//49 48//48
f 50//50 44//44 47//47
f 45//45 51//51 46//46
f 46//46 51//51 49//49
f 52//52 44//44 50//50
f 44//44 52//52 45//45
f 47//47 53//53 50//50
f 54//54 49//49 51//51
f 48//48 55//55 56//56
f 54//54 48//48 49//49
f 57//57 51//51 45//45
f 47//47 48//48 56//56
f 55//55 48//48 54//54
f 52//52 50//50 58//58
f 59//59 45//45 52//52
f 51//51 60//60 61//61
f 51//51 61//61 54//54
f 53//53 58//58 50//50
f 52//52 62//62 59//59
f 59//59 57//57 45//45
f 51//51 57//57 60//60
f 56//56 53//53 47//47
f 55//55 54//54 61//61
f 62//62 52//52 58//58
f 63//63 56//56 55//55
f 55//55 61//61 63//63
f 64//64 58//58 53//53
f 53//53 65//65 66//66
f 57//57 59//59 67//67
f 53//53 56//56 65//65
f 65//65 56//56 63//63
f 64//64 53//53 66//66
f 60//60 57//57 68//68
f 60//60 68//68 61//61
f 58//58 64//64 62//62
f 63//63 61//61 69//69
f 61//61 68//68 69//69
f 62//62 67//67 59//59
f 67//67 70//70 57//57
f 65//65 71//71 66//66
f 57//57 72//72 68//68
f 65//65 63//63 71//71
f 63//63 69//69 71//71
f 73//73 64//64 66//66
f 64//64 73//73 62//62
f 62//62 70//70 67//67
f 62//62 74//74 70//70
f 71//71 75//75 66//66
f 72//72 57//57 70//70
f 76//76 68//68 72//72
f 68//68 76//76 69//69
f 73//73 74//74 62//62
f 73//73 66//66 75//75
f 70//70 74//74 77//77
f 70//70 77//77 72//72
f 73//73 78//78 74//74
f 73//73 75//75 78//78
f 71//71 69//69 75//75
f 76//76 72//72 77//77
f 77//77 75//75 69//69
f 69//69 76//76 77//77
f 74//74 75//75 77//77
f 78//78 75//75 74//74
# 148 faces, 0 coords texture

# End of File
