####
#
# OBJ File Generated by Meshlab
#
####
# Object VentralDC-resize-v2.obj
#
# Vertices: 312
# Faces: 624
#
####
mtllib ./VentralDC-resize-v2.obj.mtl

vn 0.324552 -4.678170 2.848798
v -24.501900 -30.111725 -12.909159 0.752941 0.752941 0.752941
vn -2.794806 -5.165239 -0.218982
v -25.407707 -30.182697 -14.627406 0.752941 0.752941 0.752941
vn 0.674888 -3.277485 -1.728492
v -23.647453 -30.771822 -15.810275 0.752941 0.752941 0.752941
vn 0.665719 -2.124431 4.951561
v -22.766798 -28.703625 -12.136137 0.752941 0.752941 0.752941
vn -1.841550 -1.177886 1.550932
v -26.586855 -29.648458 -12.464837 0.752941 0.752941 0.752941
vn 1.647889 -1.193382 0.325644
v -14.114873 -29.790604 -14.505215 0.752941 0.752941 0.752941
vn 1.141482 -4.812836 -1.090558
v -21.827271 -30.020470 -14.849265 0.752941 0.752941 0.752941
vn 1.791719 -3.324479 -2.784983
v -15.224782 -29.688711 -15.630263 0.752941 0.752941 0.752941
vn 1.146476 -2.827209 -5.032244
v -22.464081 -28.739944 -15.681552 0.752941 0.752941 0.752941
vn -0.571856 -3.266124 -3.654792
v -25.857290 -28.998449 -17.315136 0.752941 0.752941 0.752941
vn 1.320889 -0.512613 5.603508
v -17.421925 -27.990425 -12.880280 0.752941 0.752941 0.752941
vn -3.813972 -0.117306 4.071919
v -27.102325 -27.589476 -14.051976 0.752941 0.752941 0.752941
vn 3.218514 -2.883521 2.854957
v -14.173043 -27.298912 -14.509595 0.752941 0.752941 0.752941
vn 2.263726 -4.123037 -3.699865
v -15.291095 -27.572803 -16.721598 0.752941 0.752941 0.752941
vn 0.311800 -2.640401 -5.156068
v -18.987787 -26.485556 -18.219894 0.752941 0.752941 0.752941
vn -0.682335 2.457068 4.533489
v -23.329760 -26.460707 -12.196637 0.752941 0.752941 0.752941
vn -3.825163 -1.644682 0.734602
v -29.093786 -27.314487 -15.949188 0.752941 0.752941 0.752941
vn -0.558722 -2.476604 -5.602978
v -23.972980 -25.378193 -18.093946 0.752941 0.752941 0.752941
vn -2.192271 -2.130048 -3.285959
v -28.149357 -27.469446 -17.853130 0.752941 0.752941 0.752941
vn -2.564096 -2.728461 -4.381737
v -16.938921 -25.800514 -18.624210 0.752941 0.752941 0.752941
vn 3.588906 -2.492994 2.432744
v -1.274387 -25.255308 -14.828588 0.752941 0.752941 0.752941
vn 1.110190 -4.688219 2.280535
v -5.785064 -27.157824 -12.850153 0.752941 0.752941 0.752941
vn 1.941145 -5.525993 0.542791
v -4.174195 -27.002827 -14.744098 0.752941 0.752941 0.752941
vn -0.428628 -5.151338 2.556519
v -12.189920 -26.604080 -14.583860 0.752941 0.752941 0.752941
vn -0.951454 -1.293875 3.325403
v -9.091195 -26.140020 -11.252739 0.752941 0.752941 0.752941
vn -0.078096 0.228521 6.111202
v -15.928011 -25.125406 -13.533426 0.752941 0.752941 0.752941
vn -0.400967 -5.961296 -0.581706
v -9.097332 -27.342060 -16.472586 0.752941 0.752941 0.752941
vn 0.481566 -5.978782 -1.495052
v -13.075603 -26.570608 -17.226051 0.752941 0.752941 0.752941
vn 0.203086 -6.153182 -1.199117
v -5.635921 -26.199999 -20.492950 0.752941 0.752941 0.752941
vn -0.314198 -6.046642 -1.274085
v -11.732899 -25.793585 -19.801397 0.752941 0.752941 0.752941
vn 1.330479 0.093586 4.035494
v -5.249688 -25.057619 -11.316533 0.752941 0.752941 0.752941
vn -2.568080 2.310981 4.559395
v -18.019691 -24.096729 -14.216852 0.752941 0.752941 0.752941
vn -1.218913 -0.300471 5.963877
v -12.266826 -24.173189 -13.319005 0.752941 0.752941 0.752941
vn 0.662301 -2.502515 5.663780
v -13.405423 -25.594374 -13.764013 0.752941 0.752941 0.752941
vn -0.236811 4.396289 4.115064
v -24.432957 -24.964285 -14.419420 0.752941 0.752941 0.752941
vn 4.252476 -2.045637 -0.741886
v 0.082424 -24.681549 -19.678705 0.752941 0.752941 0.752941
vn 1.871937 -5.592088 -1.035445
v -2.421886 -26.052088 -20.368046 0.752941 0.752941 0.752941
vn -3.266887 -4.930080 -1.453001
v -15.979333 -25.337608 -20.305573 0.752941 0.752941 0.752941
vn 0.924644 -1.507795 -3.668291
v -20.462782 -25.374214 -19.576431 0.752941 0.752941 0.752941
vn -3.500228 -1.855457 -2.837341
v -28.936001 -23.231209 -18.103319 0.752941 0.752941 0.752941
vn -1.952914 -5.803485 -0.172280
v -15.551866 -25.403172 -22.125065 0.752941 0.752941 0.752941
vn 0.631034 3.586910 -4.051790
v -18.878450 -25.125776 -17.935230 0.752941 0.752941 0.752941
vn 2.993057 -1.701682 -2.770327
v -1.938772 -24.803728 -23.415318 0.752941 0.752941 0.752941
vn 1.046412 -5.243985 -2.821713
v -5.217649 -25.265530 -24.511763 0.752941 0.752941 0.752941
vn 0.182361 -5.044317 -2.804513
v -8.151743 -25.542921 -24.926075 0.752941 0.752941 0.752941
vn 0.072476 -6.117462 -0.927235
v -11.868465 -25.620356 -23.530777 0.752941 0.752941 0.752941
vn -0.245805 -3.378193 -2.268045
v -14.203685 -25.834234 -26.668207 0.752941 0.752941 0.752941
vn 2.453550 1.554917 5.389792
v -3.699482 -23.015409 -13.338252 0.752941 0.752941 0.752941
vn -1.841966 5.555261 0.575111
v -19.586926 -24.953812 -14.635729 0.752941 0.752941 0.752941
vn -2.095916 1.847885 3.240518
v -28.436594 -22.660553 -15.493563 0.752941 0.752941 0.752941
vn -5.762620 -0.107270 -0.826357
v -18.459740 -23.469063 -16.961433 0.752941 0.752941 0.752941
vn 2.835968 3.871511 2.933839
v -21.516745 -23.927486 -17.569811 0.752941 0.752941 0.752941
vn 5.141532 0.440903 0.137196
v -20.989597 -23.606768 -19.343979 0.752941 0.752941 0.752941
vn -2.674901 -4.938611 0.919935
v -18.842014 -22.621664 -19.094849 0.752941 0.752941 0.752941
vn -3.483061 -2.789640 -1.098341
v -19.673979 -23.589296 -22.829689 0.752941 0.752941 0.752941
vn 2.860159 -1.692554 -3.783455
v -3.908630 -24.291479 -25.219202 0.752941 0.752941 0.752941
vn -3.550039 -3.159770 -2.696665
v -16.870478 -24.351038 -25.680260 0.752941 0.752941 0.752941
vn 1.310192 -4.021759 -4.421698
v -11.466534 -24.190353 -26.301174 0.752941 0.752941 0.752941
vn 1.463585 -2.620389 -5.119899
v -5.803678 -23.636377 -26.258581 0.752941 0.752941 0.752941
vn -0.405852 1.739548 5.875015
v -9.012306 -22.706936 -13.240803 0.752941 0.752941 0.752941
vn 4.420852 0.264480 2.474187
v -0.269181 -23.078123 -15.412029 0.752941 0.752941 0.752941
vn 0.910503 1.650890 5.874677
v -24.888897 -21.932789 -17.099276 0.752941 0.752941 0.752941
vn -1.647408 -2.992989 -4.611345
v -21.283113 -22.443565 -20.325245 0.752941 0.752941 0.752941
vn 4.963549 1.686970 -1.675880
v -0.197406 -21.760120 -19.944395 0.752941 0.752941 0.752941
vn 4.682509 2.080753 -3.478441
v -3.817696 -19.649569 -22.366777 0.752941 0.752941 0.752941
vn 0.451913 -2.224062 -5.677103
v -13.696934 -23.222858 -27.652327 0.752941 0.752941 0.752941
vn -2.610191 -0.614751 -4.767619
v -15.621748 -22.155409 -27.761639 0.752941 0.752941 0.752941
vn -5.290797 -2.373092 1.662398
v -18.680910 -22.231325 -16.241768 0.752941 0.752941 0.752941
vn -2.497164 -0.103508 -0.448550
v -30.100487 -21.581848 -18.542849 0.752941 0.752941 0.752941
vn -0.569743 -1.220675 5.672460
v -21.594547 -20.697010 -17.400221 0.752941 0.752941 0.752941
vn -0.811630 -1.594118 -5.989484
v -24.560902 -19.456858 -20.155172 0.752941 0.752941 0.752941
vn -4.308772 -3.082487 -1.181494
v -20.395390 -22.547222 -21.548464 0.752941 0.752941 0.752941
vn -4.473913 0.616012 -4.211392
v -17.808460 -20.448242 -25.218250 0.752941 0.752941 0.752941
vn 0.669395 0.917670 -4.851680
v -9.532078 -19.340202 -28.614725 0.752941 0.752941 0.752941
vn -3.271274 0.763291 4.725627
v -18.880499 -19.896917 -15.166670 0.752941 0.752941 0.752941
vn -1.424931 2.948193 5.121441
v -27.741268 -20.730762 -17.435160 0.752941 0.752941 0.752941
vn -3.104578 -0.839509 -3.602329
v -29.243355 -20.557911 -19.345043 0.752941 0.752941 0.752941
vn 3.068346 1.566458 -3.488234
v -5.867086 -19.278360 -27.173756 0.752941 0.752941 0.752941
vn -0.676933 1.025829 -5.210056
v -12.198853 -19.810280 -28.633186 0.752941 0.752941 0.752941
vn 3.510564 1.658187 4.446271
v -3.703408 -17.273645 -14.509460 0.752941 0.752941 0.752941
vn -1.035161 1.359748 5.828978
v -12.325773 -17.854155 -13.643874 0.752941 0.752941 0.752941
vn -1.678991 2.377958 4.957654
v -15.524803 -18.644833 -14.105686 0.752941 0.752941 0.752941
vn 5.590501 1.552469 -0.346360
v -1.453925 -18.730295 -18.464975 0.752941 0.752941 0.752941
vn -4.534085 1.556655 3.365360
v -29.095095 -19.949247 -18.575672 0.752941 0.752941 0.752941
vn -4.316202 0.889444 -4.056181
v -20.253399 -18.587452 -22.630247 0.752941 0.752941 0.752941
vn 1.086647 1.716729 5.604926
v -6.324808 -15.974710 -13.819783 0.752941 0.752941 0.752941
vn -2.619543 0.444562 -5.412659
v -21.575117 -17.816698 -20.900768 0.752941 0.752941 0.752941
vn -0.987897 -0.328576 -5.269517
v -28.110020 -17.969084 -20.773968 0.752941 0.752941 0.752941
vn -3.157486 2.218451 -4.403215
v -16.109303 -19.166389 -26.699274 0.752941 0.752941 0.752941
vn -1.910035 2.567212 5.239402
v -19.878294 -17.824223 -16.869127 0.752941 0.752941 0.752941
vn -0.917450 1.157518 6.022444
v -22.014227 -18.265804 -17.348595 0.752941 0.752941 0.752941
vn -1.934699 2.776724 4.526313
v -27.297295 -17.670580 -18.173687 0.752941 0.752941 0.752941
vn 5.304594 -0.163374 3.305539
v -1.710123 -17.264503 -18.099457 0.752941 0.752941 0.752941
vn -1.657992 1.128947 -0.353867
v -29.622614 -17.094402 -20.034193 0.752941 0.752941 0.752941
vn 4.077702 -2.100778 -3.582845
v -3.014475 -15.931809 -20.831947 0.752941 0.752941 0.752941
vn 4.100802 0.317380 -4.206105
v -5.539397 -16.607536 -22.654562 0.752941 0.752941 0.752941
vn -1.524254 2.720635 -2.907480
v -26.753572 -16.481390 -20.454699 0.752941 0.752941 0.752941
vn 3.359842 3.537721 -3.746023
v -7.219527 -16.723955 -24.702553 0.752941 0.752941 0.752941
vn -2.803097 2.810049 -4.773589
v -16.286711 -15.998383 -24.363300 0.752941 0.752941 0.752941
vn -0.863838 3.649693 -5.003157
v -12.439377 -16.738913 -26.083416 0.752941 0.752941 0.752941
vn 1.541942 4.179652 -4.166722
v -8.348526 -17.736530 -26.986214 0.752941 0.752941 0.752941
vn -4.052362 3.172426 3.286747
v -13.345828 -16.242949 -15.059478 0.752941 0.752941 0.752941
vn -2.441924 3.246073 3.264970
v -13.853374 -15.446217 -18.109161 0.752941 0.752941 0.752941
vn -0.518135 3.999521 4.666162
v -16.349457 -16.004438 -17.830248 0.752941 0.752941 0.752941
vn 4.455899 0.118900 0.009203
v -1.018958 -15.431948 -18.987900 0.752941 0.752941 0.752941
vn -2.037165 2.948655 -1.765446
v -25.421677 -15.078909 -20.091845 0.752941 0.752941 0.752941
vn -2.673702 2.383178 3.751299
v -12.033825 -14.001828 -14.686789 0.752941 0.752941 0.752941
vn -5.338517 2.629229 1.932482
v -12.017326 -12.565223 -17.123600 0.752941 0.752941 0.752941
vn -0.683671 3.239525 5.236754
v -21.307734 -14.188967 -18.889433 0.752941 0.752941 0.752941
vn -1.212337 2.384956 -0.380552
v -23.286741 -13.494089 -19.838295 0.752941 0.752941 0.752941
vn 1.901648 -1.884953 -5.117079
v -5.212121 -15.285284 -22.746922 0.752941 0.752941 0.752941
vn -2.911958 1.042437 -5.267543
v -18.385910 -14.032984 -21.750122 0.752941 0.752941 0.752941
vn 1.256877 1.825298 -5.778528
v -8.205417 -14.207787 -23.613317 0.752941 0.752941 0.752941
vn 0.572426 3.081388 -5.397026
v -11.071296 -14.050838 -24.201406 0.752941 0.752941 0.752941
vn -1.423792 1.434354 -5.755792
v -14.021312 -13.172424 -23.734922 0.752941 0.752941 0.752941
vn 5.075100 -0.009184 0.033701
v -1.196708 -14.213134 -19.923336 0.752941 0.752941 0.752941
vn -3.354857 2.369280 -3.249356
v -20.557093 -12.901049 -20.533144 0.752941 0.752941 0.752941
vn 1.730545 -1.339117 -2.604144
v -2.216120 -13.947130 -24.426743 0.752941 0.752941 0.752941
vn 3.718325 1.581013 4.634590
v -4.387266 -11.752520 -16.866423 0.752941 0.752941 0.752941
vn 0.330950 2.038954 5.849203
v -8.524787 -12.185081 -15.271044 0.752941 0.752941 0.752941
vn -3.046332 1.907299 3.462782
v -12.423382 -12.143948 -19.565874 0.752941 0.752941 0.752941
vn -1.282212 3.017194 5.200295
v -19.538496 -12.436940 -20.015261 0.752941 0.752941 0.752941
vn -0.778720 -0.994712 -6.024637
v -6.572870 -12.592661 -23.374537 0.752941 0.752941 0.752941
vn -2.836521 2.669139 4.493791
v -10.905345 -12.074288 -15.667792 0.752941 0.752941 0.752941
vn -2.118045 0.691368 -0.375772
v -20.683138 -11.003058 -21.203447 0.752941 0.752941 0.752941
vn -2.251439 2.546816 -4.500047
v -16.949003 -9.687938 -22.415373 0.752941 0.752941 0.752941
vn 0.501578 -1.279690 -5.049875
v -9.636300 -11.295866 -22.999395 0.752941 0.752941 0.752941
vn 5.449273 0.742921 2.774630
v -2.991224 -9.990208 -19.140631 0.752941 0.752941 0.752941
vn -1.084398 2.386116 5.669675
v -14.628035 -9.574362 -20.665228 0.752941 0.752941 0.752941
vn 6.186491 0.666977 -0.063670
v -2.319669 -9.526649 -22.814514 0.752941 0.752941 0.752941
vn 0.465252 -2.887258 -5.226407
v -3.835892 -9.778940 -24.840378 0.752941 0.752941 0.752941
vn -3.242610 2.263565 3.660417
v -10.560025 -9.587156 -16.335293 0.752941 0.752941 0.752941
vn 2.267082 -0.382991 5.579180
v -5.477723 -8.015457 -16.506119 0.752941 0.752941 0.752941
vn -3.972870 2.083205 3.926282
v -11.573526 -9.131438 -19.616573 0.752941 0.752941 0.752941
vn -1.589159 2.474940 0.592619
v -19.424681 -9.677217 -21.014696 0.752941 0.752941 0.752941
vn -0.318473 -2.186966 -5.514838
v -11.815424 -10.442327 -24.396406 0.752941 0.752941 0.752941
vn -2.695879 2.211030 -4.199279
v -13.875198 -8.892102 -23.854023 0.752941 0.752941 0.752941
vn 5.219364 -1.079775 -2.650825
v -2.538237 -9.716134 -24.049900 0.752941 0.752941 0.752941
vn -2.630003 1.408029 4.892443
v -8.837876 -7.557607 -16.506773 0.752941 0.752941 0.752941
vn -0.529244 -3.518011 -4.518439
v -6.699319 -9.345813 -24.297550 0.752941 0.752941 0.752941
vn -2.783679 4.174434 1.600243
v -14.157316 -8.041531 -21.429871 0.752941 0.752941 0.752941
vn -0.717085 -2.263883 -5.213996
v -6.920500 -7.476334 -26.734026 0.752941 0.752941 0.752941
vn -2.509636 1.695987 -3.811193
v -9.685592 -7.124780 -25.982367 0.752941 0.752941 0.752941
vn -4.937326 2.767242 2.423444
v -10.318002 -5.351848 -20.209311 0.752941 0.752941 0.752941
vn 1.844708 -0.062674 -2.041812
v -2.380638 -7.266767 -27.116016 0.752941 0.752941 0.752941
vn 1.653078 0.559412 4.635714
v -5.082584 -5.021789 -15.881523 0.752941 0.752941 0.752941
vn 4.671550 1.288689 1.790775
v -2.972960 -4.567048 -18.133965 0.752941 0.752941 0.752941
vn 4.641573 3.232748 -0.983889
v -3.124580 -5.146238 -22.071703 0.752941 0.752941 0.752941
vn -2.395180 4.888904 -2.770184
v -8.135690 -5.363305 -23.561714 0.752941 0.752941 0.752941
vn -1.987104 2.244152 2.542351
v -8.549987 -2.819232 -16.709349 0.752941 0.752941 0.752941
vn -3.676243 4.029903 -1.525863
v -10.392031 -4.822477 -21.657183 0.752941 0.752941 0.752941
vn 1.959296 4.194188 -2.591462
v -3.936057 -5.402480 -26.285866 0.752941 0.752941 0.752941
vn -1.083554 2.620471 -3.132501
v -6.972433 -5.377114 -26.838856 0.752941 0.752941 0.752941
vn 0.785583 5.493325 -2.502647
v -5.605458 -4.332404 -23.017683 0.752941 0.752941 0.752941
vn 1.856617 3.380307 1.068932
v -4.623647 -1.876914 -18.026737 0.752941 0.752941 0.752941
vn -2.618155 3.857525 -1.453238
v -8.862511 -2.536187 -20.670725 0.752941 0.752941 0.752941
vn 0.057437 4.938705 -1.286785
v -6.756133 -1.739097 -19.910852 0.752941 0.752941 0.752941
vn -1.587818 -4.149353 1.563607
v 13.379997 -27.991013 -13.620064 0.752941 0.752941 0.752941
vn 0.019703 -3.358043 4.904822
v 17.556133 -26.692503 -12.816461 0.752941 0.752941 0.752941
vn -1.638592 -1.693263 1.354858
v 11.788559 -27.253216 -12.989345 0.752941 0.752941 0.752941
vn 0.424464 -5.766919 0.501831
v 19.180199 -27.556625 -14.338460 0.752941 0.752941 0.752941
vn -1.417939 -3.257957 -0.625676
v 14.063384 -28.865034 -15.526720 0.752941 0.752941 0.752941
vn 1.477770 -2.601883 -0.810479
v 25.252974 -28.108187 -16.569836 0.752941 0.752941 0.752941
vn 4.992024 -1.075531 2.583563
v 25.629662 -26.214626 -15.436582 0.752941 0.752941 0.752941
vn 1.824169 -3.152334 3.264756
v 24.366207 -27.685848 -14.677288 0.752941 0.752941 0.752941
vn -0.036428 -4.666666 0.610105
v 21.807751 -27.911543 -14.618423 0.752941 0.752941 0.752941
vn 2.813564 -2.338289 -2.815567
v 26.074522 -25.206646 -18.287352 0.752941 0.752941 0.752941
vn -0.040900 -3.602060 -3.710154
v 15.337499 -28.046345 -16.798660 0.752941 0.752941 0.752941
vn -1.229894 -3.791057 -4.300396
v 13.398215 -25.745413 -17.225182 0.752941 0.752941 0.752941
vn 0.477004 -2.328255 4.236144
v 20.262674 -26.566441 -12.202039 0.752941 0.752941 0.752941
vn 3.244299 -0.450781 4.694721
v 24.270361 -25.596985 -13.947038 0.752941 0.752941 0.752941
vn -3.352195 -4.144534 1.516102
v 10.859870 -25.595236 -14.169690 0.752941 0.752941 0.752941
vn 0.064895 -4.399560 -4.379025
v 21.415138 -25.441261 -17.975910 0.752941 0.752941 0.752941
vn -0.343551 1.504085 5.579174
v 19.146530 -24.575974 -12.241720 0.752941 0.752941 0.752941
vn 0.432341 -4.788414 2.685477
v 4.618157 -25.893454 -13.527289 0.752941 0.752941 0.752941
vn 0.176621 -0.759892 4.155000
v 4.813614 -24.392061 -12.027310 0.752941 0.752941 0.752941
vn -2.908827 -2.332909 2.099856
v 0.935956 -25.395119 -14.257998 0.752941 0.752941 0.752941
vn -0.341861 -5.765696 0.242100
v 3.397815 -26.523338 -16.251732 0.752941 0.752941 0.752941
vn -3.746047 -3.111121 -0.579666
v 0.577996 -25.465063 -19.938328 0.752941 0.752941 0.752941
vn -1.456275 -2.307046 -5.204793
v 19.307819 -25.076311 -18.343040 0.752941 0.752941 0.752941
vn 0.092461 1.104763 -5.873593
v 17.063879 -23.981663 -17.680719 0.752941 0.752941 0.752941
vn 1.194563 -6.126913 -0.533241
v 5.732272 -25.398590 -20.479664 0.752941 0.752941 0.752941
vn 0.483670 -6.120245 -0.224690
v 8.671863 -25.281664 -16.688131 0.752941 0.752941 0.752941
vn -0.951747 -5.971056 -1.041398
v 1.928910 -25.814466 -20.193783 0.752941 0.752941 0.752941
vn 1.403309 2.400207 3.730384
v 22.160217 -23.429382 -12.712962 0.752941 0.752941 0.752941
vn 0.194126 1.685215 5.958838
v 15.149258 -23.044703 -13.273315 0.752941 0.752941 0.752941
vn -0.955697 -0.558892 6.039938
v 11.068070 -23.927168 -13.375263 0.752941 0.752941 0.752941
vn 0.459792 -4.145423 4.168205
v 8.379058 -24.459808 -14.119310 0.752941 0.752941 0.752941
vn -6.097443 -0.955857 0.403077
v 0.218288 -23.245939 -16.648771 0.752941 0.752941 0.752941
vn 1.139570 -5.582917 -2.381651
v 11.142800 -24.236280 -19.130671 0.752941 0.752941 0.752941
vn 2.458364 -2.670617 -4.517778
v 14.839348 -23.455984 -18.077904 0.752941 0.752941 0.752941
vn 0.559647 -5.933345 -0.976569
v 6.640604 -25.278358 -24.174820 0.752941 0.752941 0.752941
vn -4.455256 -1.876611 -1.200830
v 0.464009 -24.466015 -22.630545 0.752941 0.752941 0.752941
vn -2.186501 -3.334904 -2.569501
v 2.176893 -24.842691 -25.469767 0.752941 0.752941 0.752941
vn -0.050333 -4.086093 -4.368268
v 9.876206 -23.840921 -27.123953 0.752941 0.752941 0.752941
vn 1.189117 4.023134 3.895379
v 23.238255 -22.462084 -14.659169 0.752941 0.752941 0.752941
vn 1.673027 4.256711 3.908915
v 17.650356 -22.618641 -14.014690 0.752941 0.752941 0.752941
vn 0.654320 0.036151 6.127695
v 7.676033 -22.615942 -13.368277 0.752941 0.752941 0.752941
vn -2.221719 0.809601 5.385198
v 2.208144 -22.040062 -13.310936 0.752941 0.752941 0.752941
vn 4.062194 -3.888364 0.091703
v 27.385992 -21.731834 -18.798300 0.752941 0.752941 0.752941
vn -3.557246 4.018519 -2.204201
v 18.799374 -23.091526 -17.617861 0.752941 0.752941 0.752941
vn 1.155992 -3.032403 -5.291462
v 25.281775 -22.233826 -19.728361 0.752941 0.752941 0.752941
vn -4.269253 -2.212145 -1.344248
v 19.540764 -23.059097 -19.899464 0.752941 0.752941 0.752941
vn 1.178068 -3.872027 -4.353125
v 20.804434 -22.847054 -20.728352 0.752941 0.752941 0.752941
vn 2.093942 -5.611729 0.264300
v 12.067996 -23.351450 -21.335854 0.752941 0.752941 0.752941
vn 0.877407 -5.110322 -0.753319
v 11.609452 -25.060570 -25.306339 0.752941 0.752941 0.752941
vn 2.612376 -4.381701 -0.993374
v 16.561995 -22.958876 -23.929354 0.752941 0.752941 0.752941
vn -2.917967 -0.749031 -3.862068
v 2.507491 -22.850464 -26.824810 0.752941 0.752941 0.752941
vn 2.458423 -2.918714 -3.086985
v 14.646422 -23.502445 -26.546322 0.752941 0.752941 0.752941
vn 0.539897 -1.621460 -5.597148
v 10.821273 -22.198141 -28.090576 0.752941 0.752941 0.752941
vn -4.628155 0.485575 3.470496
v 0.363221 -20.495544 -14.950068 0.752941 0.752941 0.752941
vn 3.516694 1.327917 4.447281
v 26.384293 -21.249470 -16.967514 0.752941 0.752941 0.752941
vn 0.544711 5.813904 0.032988
v 19.073109 -22.522705 -15.672293 0.752941 0.752941 0.752941
vn 5.063545 -1.071671 -0.644762
v 17.028406 -20.789482 -16.551617 0.752941 0.752941 0.752941
vn -5.785858 0.566285 -1.995986
v 0.658259 -20.556648 -20.821409 0.752941 0.752941 0.752941
vn 2.353715 -4.190935 0.733987
v 13.544450 -22.231588 -21.382376 0.752941 0.752941 0.752941
vn 1.607452 -5.216044 0.361500
v 15.201703 -21.713593 -20.509689 0.752941 0.752941 0.752941
vn 2.725036 -3.142989 -3.279527
v 18.987129 -22.181988 -22.513601 0.752941 0.752941 0.752941
vn -2.875786 -4.586432 2.271690
v 19.004438 -22.423820 -20.378536 0.752941 0.752941 0.752941
vn -4.761175 2.519608 -2.317671
v 1.886169 -19.612732 -24.180248 0.752941 0.752941 0.752941
vn -0.935497 -0.609888 -5.682475
v 5.676033 -21.216528 -28.044180 0.752941 0.752941 0.752941
vn 0.548947 1.350734 5.940378
v 9.969729 -17.636572 -13.633122 0.752941 0.752941 0.752941
vn -4.712681 0.703304 0.079754
v -0.982321 -18.257936 -17.915966 0.752941 0.752941 0.752941
vn -2.205518 4.171017 3.542673
v 21.746656 -21.652706 -16.918974 0.752941 0.752941 0.752941
vn -3.188922 0.600967 4.339942
v 21.030632 -21.064938 -17.927071 0.752941 0.752941 0.752941
vn 1.315112 -0.995236 -5.988255
v 22.647266 -19.801458 -20.931728 0.752941 0.752941 0.752941
vn 4.039812 0.127094 -4.287623
v 16.612751 -20.060257 -25.553259 0.752941 0.752941 0.752941
vn 2.159009 0.765310 -5.297549
v 13.439344 -19.625788 -27.713778 0.752941 0.752941 0.752941
vn -2.440587 2.188393 -4.431883
v 4.483883 -19.751465 -27.510935 0.752941 0.752941 0.752941
vn 3.263277 1.727445 3.330709
v 17.174395 -19.285261 -15.119436 0.752941 0.752941 0.752941
vn 0.736403 3.094598 5.300056
v 24.735115 -19.832907 -17.228672 0.752941 0.752941 0.752941
vn 3.233042 -0.116253 1.004271
v 29.836569 -19.916391 -19.520056 0.752941 0.752941 0.752941
vn 2.062069 -0.885087 -1.889471
v 29.568501 -20.294008 -20.838923 0.752941 0.752941 0.752941
vn 0.456554 -4.370357 3.666584
v 18.424309 -20.371813 -18.518578 0.752941 0.752941 0.752941
vn -0.130027 1.720414 -5.692953
v 10.264096 -19.143389 -28.050165 0.752941 0.752941 0.752941
vn -1.784287 1.275757 5.571196
v 2.964453 -17.732216 -13.983582 0.752941 0.752941 0.752941
vn 1.916113 0.912761 5.329292
v 18.703758 -18.222124 -17.120062 0.752941 0.752941 0.752941
vn 2.994461 3.393038 2.842262
v 28.474010 -18.427761 -19.187117 0.752941 0.752941 0.752941
vn 0.158803 0.826434 6.111673
v 21.592670 -19.115314 -17.711590 0.752941 0.752941 0.752941
vn 1.189781 0.928157 -5.920618
v 23.574486 -17.345356 -21.090199 0.752941 0.752941 0.752941
vn 2.629661 1.336928 -5.356499
v 18.589958 -16.028723 -22.148504 0.752941 0.752941 0.752941
vn 2.131992 2.912514 4.943397
v 13.480301 -18.402937 -14.370929 0.752941 0.752941 0.752941
vn 1.353974 3.422963 4.727106
v 23.743097 -16.915850 -18.464775 0.752941 0.752941 0.752941
vn -4.350807 1.640357 -3.736252
v 3.190907 -17.033876 -22.387323 0.752941 0.752941 0.752941
vn -4.418376 1.738108 3.918926
v 1.570607 -16.462196 -15.408414 0.752941 0.752941 0.752941
vn 1.967286 4.041034 4.133483
v 14.556633 -17.061127 -16.742767 0.752941 0.752941 0.752941
vn 2.305043 2.935884 -2.266859
v 28.375134 -18.108887 -20.563070 0.752941 0.752941 0.752941
vn -5.266353 -0.276874 -2.881573
v 0.841650 -15.654763 -19.997192 0.752941 0.752941 0.752941
vn 0.907240 2.906970 -5.052139
v 12.185076 -17.064878 -27.075777 0.752941 0.752941 0.752941
vn -2.102366 2.992293 -4.920922
v 6.389491 -15.780278 -25.038832 0.752941 0.752941 0.752941
vn 2.618720 3.134170 4.230878
v 11.000405 -15.809181 -14.599588 0.752941 0.752941 0.752941
vn 1.578246 3.920749 4.320324
v 18.679169 -13.995638 -19.409876 0.752941 0.752941 0.752941
vn -5.964824 0.667500 1.109812
v 0.712727 -14.613604 -19.088530 0.752941 0.752941 0.752941
vn 2.800560 3.993848 -0.149707
v 23.333059 -15.444534 -20.163902 0.752941 0.752941 0.752941
vn 3.299935 3.131447 -3.978093
v 16.576544 -15.524771 -23.692780 0.752941 0.752941 0.752941
vn 0.665959 3.555583 5.089041
v 14.824409 -14.347654 -18.795300 0.752941 0.752941 0.752941
vn 3.144484 4.742708 1.393406
v 10.290026 -13.724676 -17.839294 0.752941 0.752941 0.752941
vn 2.018667 2.603805 -0.673496
v 21.600672 -13.808666 -20.978045 0.752941 0.752941 0.752941
vn 1.191539 1.817222 -1.576245
v 20.836657 -13.422386 -21.626425 0.752941 0.752941 0.752941
vn -2.243470 -2.547574 -4.428910
v 3.198753 -14.657843 -22.552250 0.752941 0.752941 0.752941
vn 1.198983 2.219363 5.554000
v 8.017689 -12.749680 -15.059398 0.752941 0.752941 0.752941
vn -1.613916 1.379349 5.613316
v 3.485077 -12.772211 -15.013458 0.752941 0.752941 0.752941
vn -5.764187 1.008674 2.245881
v 1.290375 -11.595325 -18.616293 0.752941 0.752941 0.752941
vn 1.831599 1.863300 -5.489175
v 13.701869 -13.262916 -23.621765 0.752941 0.752941 0.752941
vn -0.026137 1.321900 -5.824208
v 10.339090 -12.818645 -23.922102 0.752941 0.752941 0.752941
vn 3.889180 2.715055 0.882501
v 8.701807 -10.964442 -16.491261 0.752941 0.752941 0.752941
vn 0.820497 3.255576 4.690223
v 8.648339 -12.440888 -19.881763 0.752941 0.752941 0.752941
vn -3.343661 -4.695769 -1.289969
v 0.564246 -14.393826 -21.857679 0.752941 0.752941 0.752941
vn 3.194821 3.264678 -2.386448
v 18.428543 -13.145310 -21.212404 0.752941 0.752941 0.752941
vn -4.869849 -0.417500 0.269861
v -0.874259 -12.609293 -22.512989 0.752941 0.752941 0.752941
vn -1.977741 -1.969003 -2.485971
v -0.065563 -13.514200 -24.538338 0.752941 0.752941 0.752941
vn -0.165465 -0.885453 -5.666745
v 4.433275 -13.312144 -23.381765 0.752941 0.752941 0.752941
vn 0.934360 -2.575782 -5.068458
v 1.948758 -12.936024 -24.701851 0.752941 0.752941 0.752941
vn 2.080987 1.688113 0.658946
v 7.172983 -12.732627 -19.369146 0.752941 0.752941 0.752941
vn 2.450352 2.948050 4.252128
v 17.048788 -11.244603 -20.576719 0.752941 0.752941 0.752941
vn 1.498875 1.034717 5.719052
v 5.867880 -8.292927 -16.216116 0.752941 0.752941 0.752941
vn -3.391268 0.375976 4.768389
v 2.745342 -8.116925 -16.606207 0.752941 0.752941 0.752941
vn 3.611307 0.829708 -1.079788
v 17.868170 -11.113941 -21.881395 0.752941 0.752941 0.752941
vn 2.100027 -1.100381 -5.773860
v 14.576599 -11.195457 -23.451843 0.752941 0.752941 0.752941
vn 0.453700 -2.935106 -4.235752
v 5.718607 -9.083449 -24.064291 0.752941 0.752941 0.752941
vn -4.814202 -0.724209 -1.518432
v 0.299900 -9.666258 -24.944132 0.752941 0.752941 0.752941
vn 5.492139 0.802492 2.353819
v 7.213876 -7.972243 -17.492992 0.752941 0.752941 0.752941
vn 3.645584 0.804000 4.022127
v 8.075772 -8.765358 -20.640347 0.752941 0.752941 0.752941
vn -6.006423 1.324055 0.838704
v 1.247762 -8.205558 -21.811394 0.752941 0.752941 0.752941
vn 0.345540 -2.646203 -5.503925
v 10.871555 -10.153968 -24.319260 0.752941 0.752941 0.752941
vn 2.311041 1.393854 -0.737410
v 16.848827 -8.496806 -23.001999 0.752941 0.752941 0.752941
vn 2.143028 -1.608642 -5.334669
v 12.355874 -8.831979 -24.982441 0.752941 0.752941 0.752941
vn 0.694856 -3.626265 -4.748024
v 2.059961 -9.602335 -25.913244 0.752941 0.752941 0.752941
vn 1.337601 3.037697 5.208256
v 12.854963 -6.819911 -22.218029 0.752941 0.752941 0.752941
vn -4.873213 3.315138 0.402094
v 0.311842 -7.220605 -26.415379 0.752941 0.752941 0.752941
vn 1.987297 -0.157136 -3.672981
v 9.719860 -7.171646 -27.179808 0.752941 0.752941 0.752941
vn -1.075684 -0.118951 -0.551060
v -1.144297 -8.337138 -27.456043 0.752941 0.752941 0.752941
vn 0.709312 -3.811712 -4.762445
v 2.847951 -7.574731 -27.516527 0.752941 0.752941 0.752941
vn -4.867459 3.324910 -0.826878
v 1.886757 -4.773041 -23.594702 0.752941 0.752941 0.752941
vn 2.914798 2.648287 -4.590623
v 12.395588 -7.151497 -24.771614 0.752941 0.752941 0.752941
vn 0.444354 -5.405400 -3.012187
v 5.682827 -7.269788 -27.140398 0.752941 0.752941 0.752941
vn 1.339878 -1.910133 -4.357460
v 7.569727 -6.443339 -28.431543 0.752941 0.752941 0.752941
vn -2.124064 0.329848 -4.551260
v 1.028893 -7.208484 -27.752369 0.752941 0.752941 0.752941
vn -2.664197 2.500570 1.028080
v 1.699566 -2.204527 -18.308733 0.752941 0.752941 0.752941
vn 2.733658 2.013904 5.173843
v 8.714739 -5.964744 -21.535288 0.752941 0.752941 0.752941
vn 1.708855 3.335763 0.307257
v 13.299217 -5.765423 -23.085560 0.752941 0.752941 0.752941
vn -1.185902 1.372483 -2.654437
v 2.481737 -5.270698 -28.724232 0.752941 0.752941 0.752941
vn 2.960369 1.083007 3.454781
v 6.672408 -5.284232 -16.332811 0.752941 0.752941 0.752941
vn -1.772696 1.146485 3.696812
v 2.825167 -4.184324 -15.992784 0.752941 0.752941 0.752941
vn 4.368035 3.647202 0.950609
v 7.482365 -3.461426 -21.331589 0.752941 0.752941 0.752941
vn 2.571316 4.615857 0.019009
v 9.834951 -4.690992 -23.391535 0.752941 0.752941 0.752941
vn 2.544833 5.055630 -2.595733
v 8.709262 -5.386462 -25.417446 0.752941 0.752941 0.752941
vn 1.119419 2.446691 -3.044735
v 6.908957 -5.191497 -28.601366 0.752941 0.752941 0.752941
vn -1.323259 5.549882 -2.066819
v 3.591965 -4.159203 -25.093264 0.752941 0.752941 0.752941
vn 1.360736 4.999623 -2.983799
v 5.701922 -2.882373 -23.310020 0.752941 0.752941 0.752941
vn 1.936883 3.950011 2.577727
v 5.348871 -2.028474 -18.084524 0.752941 0.752941 0.752941
vn 0.710815 4.230111 -0.537154
v 5.161664 -1.141062 -20.637335 0.752941 0.752941 0.752941
# 312 vertices, 0 vertices normals


usemtl material_0
f 1//1 2//2 3//3
f 5//5 1//1 4//4
f 6//6 4//4 7//7
f 1//1 7//7 4//4
f 7//7 1//1 3//3
f 1//1 5//5 2//2
f 6//6 7//7 8//8
f 8//8 7//7 9//9
f 10//10 3//3 2//2
f 11//11 4//4 6//6
f 2//2 5//5 12//12
f 6//6 8//8 13//13
f 14//14 13//13 8//8
f 7//7 3//3 9//9
f 8//8 15//15 14//14
f 8//8 9//9 15//15
f 10//10 9//9 3//3
f 4//4 16//16 5//5
f 11//11 6//6 13//13
f 5//5 16//16 12//12
f 2//2 12//12 17//17
f 2//2 17//17 10//10
f 9//9 18//18 15//15
f 19//19 10//10 17//17
f 14//14 15//15 20//20
f 21//21 22//22 23//23
f 24//24 22//22 25//25
f 4//4 11//11 16//16
f 13//13 26//26 11//11
f 23//23 22//22 27//27
f 22//22 24//24 27//27
f 24//24 28//28 27//27
f 23//23 27//27 29//29
f 27//27 28//28 30//30
f 27//27 30//30 29//29
f 22//22 31//31 25//25
f 11//11 32//32 16//16
f 24//24 25//25 33//33
f 24//24 33//33 34//34
f 34//34 13//13 24//24
f 13//13 34//34 26//26
f 32//32 11//11 26//26
f 16//16 35//35 12//12
f 24//24 13//13 28//28
f 36//36 21//21 23//23
f 13//13 14//14 28//28
f 23//23 37//37 36//36
f 28//28 14//14 38//38
f 14//14 20//20 38//38
f 15//15 18//18 39//39
f 9//9 10//10 18//18
f 40//40 19//19 17//17
f 23//23 29//29 37//37
f 28//28 38//38 41//41
f 28//28 41//41 30//30
f 42//42 20//20 15//15
f 39//39 42//42 15//15
f 10//10 19//19 18//18
f 40//40 18//18 19//19
f 43//43 36//36 37//37
f 37//37 29//29 44//44
f 45//45 29//29 46//46
f 41//41 47//47 46//46
f 31//31 22//22 21//21
f 31//31 21//21 48//48
f 32//32 49//49 16//16
f 16//16 49//49 35//35
f 35//35 50//50 12//12
f 12//12 50//50 17//17
f 49//49 51//51 42//42
f 52//52 49//49 42//42
f 20//20 51//51 38//38
f 20//20 42//42 51//51
f 42//42 53//53 52//52
f 42//42 39//39 53//53
f 29//29 30//30 46//46
f 43//43 37//37 44//44
f 41//41 46//46 30//30
f 38//38 54//54 41//41
f 41//41 54//54 55//55
f 43//43 44//44 56//56
f 45//45 44//44 29//29
f 41//41 55//55 57//57
f 46//46 58//58 45//45
f 46//46 47//47 58//58
f 44//44 45//45 56//56
f 41//41 57//57 47//47
f 59//59 56//56 45//45
f 58//58 59//59 45//45
f 31//31 60//60 25//25
f 31//31 48//48 60//60
f 60//60 33//33 25//25
f 61//61 48//48 21//21
f 34//34 33//33 26//26
f 49//49 32//32 51//51
f 49//49 52//52 35//35
f 35//35 52//52 50//50
f 21//21 36//36 61//61
f 52//52 62//62 50//50
f 17//17 50//50 40//40
f 54//54 38//38 51//51
f 18//18 63//63 39//39
f 39//39 63//63 53//53
f 36//36 43//43 64//64
f 43//43 56//56 65//65
f 58//58 47//47 66//66
f 67//67 47//47 57//57
f 32//32 68//68 51//51
f 69//69 40//40 50//50
f 51//51 68//68 54//54
f 52//52 53//53 70//70
f 18//18 40//40 71//71
f 18//18 71//71 63//63
f 54//54 72//72 55//55
f 64//64 43//43 65//65
f 55//55 73//73 57//57
f 59//59 58//58 74//74
f 66//66 47//47 67//67
f 32//32 75//75 68//68
f 50//50 62//62 76//76
f 54//54 70//70 53//53
f 52//52 70//70 62//62
f 36//36 64//64 61//61
f 54//54 53//53 63//63
f 77//77 71//71 40//40
f 40//40 69//69 77//77
f 54//54 63//63 72//72
f 65//65 56//56 78//78
f 56//56 59//59 78//78
f 58//58 66//66 74//74
f 73//73 67//67 57//57
f 66//66 67//67 79//79
f 48//48 61//61 80//80
f 60//60 81//81 33//33
f 33//33 82//82 26//26
f 26//26 82//82 32//32
f 75//75 32//32 82//82
f 69//69 50//50 76//76
f 64//64 83//83 61//61
f 68//68 70//70 54//54
f 68//68 75//75 70//70
f 76//76 84//84 69//69
f 72//72 85//85 55//55
f 55//55 85//85 73//73
f 59//59 74//74 78//78
f 74//74 66//66 79//79
f 48//48 86//86 60//60
f 33//33 81//81 82//82
f 84//84 77//77 69//69
f 71//71 87//87 63//63
f 77//77 88//88 71//71
f 64//64 65//65 83//83
f 72//72 63//63 87//87
f 72//72 87//87 85//85
f 73//73 89//89 67//67
f 79//79 67//67 89//89
f 86//86 48//48 80//80
f 81//81 60//60 86//86
f 70//70 75//75 90//90
f 70//70 90//90 91//91
f 70//70 91//91 62//62
f 92//92 84//84 76//76
f 61//61 83//83 80//80
f 82//82 90//90 75//75
f 83//83 93//93 80//80
f 91//91 92//92 62//62
f 62//62 92//92 76//76
f 92//92 94//94 84//84
f 84//84 94//94 77//77
f 83//83 65//65 95//95
f 96//96 95//95 65//65
f 97//97 87//87 71//71
f 77//77 94//94 88//88
f 65//65 98//98 96//96
f 65//65 78//78 98//98
f 99//99 89//89 73//73
f 79//79 89//89 100//100
f 101//101 98//98 78//78
f 100//100 101//101 74//74
f 100//100 74//74 79//79
f 78//78 74//74 101//101
f 102//102 82//82 81//81
f 102//102 103//103 82//82
f 103//103 104//104 82//82
f 82//82 104//104 90//90
f 93//93 83//83 105//105
f 83//83 95//95 105//105
f 87//87 97//97 106//106
f 71//71 88//88 97//97
f 94//94 97//97 88//88
f 73//73 85//85 99//99
f 99//99 100//100 89//89
f 81//81 86//86 107//107
f 81//81 107//107 102//102
f 102//102 108//108 103//103
f 93//93 105//105 80//80
f 90//90 109//109 91//91
f 91//91 109//109 92//92
f 109//109 110//110 92//92
f 92//92 106//106 97//97
f 94//94 92//92 97//97
f 96//96 111//111 95//95
f 112//112 85//85 87//87
f 96//96 98//98 111//111
f 113//113 111//111 98//98
f 112//112 99//99 85//85
f 98//98 101//101 114//114
f 100//100 114//114 101//101
f 115//115 100//100 99//99
f 90//90 104//104 109//109
f 110//110 106//106 92//92
f 105//105 95//95 116//116
f 87//87 106//106 110//110
f 87//87 110//110 117//117
f 118//118 116//116 95//95
f 95//95 111//111 118//118
f 114//114 113//113 98//98
f 114//114 100//100 115//115
f 80//80 119//119 86//86
f 86//86 119//119 120//120
f 86//86 120//120 107//107
f 119//119 80//80 105//105
f 108//108 102//102 107//107
f 121//121 103//103 108//108
f 122//122 104//104 103//103
f 87//87 117//117 112//112
f 111//111 113//113 123//123
f 107//107 120//120 124//124
f 104//104 122//122 109//109
f 109//109 122//122 110//110
f 112//112 125//125 126//126
f 99//99 112//112 115//115
f 126//126 115//115 112//112
f 123//123 118//118 111//111
f 127//127 123//123 113//113
f 113//113 114//114 127//127
f 115//115 127//127 114//114
f 124//124 108//108 107//107
f 105//105 116//116 119//119
f 116//116 128//128 119//119
f 103//103 121//121 122//122
f 122//122 121//121 129//129
f 125//125 117//117 122//122
f 122//122 117//117 110//110
f 112//112 117//117 125//125
f 116//116 118//118 130//130
f 131//131 118//118 123//123
f 132//132 124//124 120//120
f 132//132 108//108 124//124
f 133//133 119//119 128//128
f 134//134 121//121 108//108
f 135//135 125//125 122//122
f 135//135 122//122 129//129
f 136//136 127//127 115//115
f 115//115 126//126 137//137
f 131//131 138//138 118//118
f 137//137 136//136 115//115
f 120//120 133//133 139//139
f 132//132 120//120 139//139
f 134//134 108//108 132//132
f 116//116 130//130 128//128
f 121//121 134//134 129//129
f 140//140 123//123 127//127
f 130//130 118//118 138//138
f 131//131 123//123 140//140
f 119//119 133//133 120//120
f 135//135 129//129 141//141
f 135//135 126//126 125//125
f 140//140 127//127 136//136
f 140//140 142//142 131//131
f 140//140 136//136 142//142
f 137//137 143//143 136//136
f 136//136 143//143 142//142
f 134//134 132//132 139//139
f 139//139 144//144 134//134
f 141//141 129//129 134//134
f 141//141 126//126 135//135
f 145//145 130//130 138//138
f 138//138 131//131 145//145
f 128//128 146//146 133//133
f 128//128 147//147 146//146
f 128//128 130//130 147//147
f 144//144 141//141 134//134
f 126//126 141//141 137//137
f 130//130 145//145 148//148
f 149//149 143//143 137//137
f 131//131 142//142 145//145
f 146//146 139//139 133//133
f 150//150 139//139 146//146
f 148//148 147//147 130//130
f 141//141 151//151 137//137
f 151//151 149//149 137//137
f 152//152 148//148 145//145
f 145//145 142//142 153//153
f 142//142 143//143 153//153
f 139//139 150//150 144//144
f 141//141 144//144 151//151
f 148//148 152//152 154//154
f 149//149 154//154 153//153
f 149//149 153//153 143//143
f 145//145 153//153 152//152
f 147//147 155//155 146//146
f 156//156 151//151 144//144
f 156//156 154//154 149//149
f 149//149 151//151 156//156
f 152//152 153//153 154//154
f 146//146 155//155 150//150
f 156//156 144//144 150//150
f 147//147 148//148 155//155
f 148//148 154//154 155//155
f 157//157 155//155 154//154
f 157//157 154//154 156//156
f 155//155 157//157 150//150
f 156//156 150//150 157//157
f 158//158 159//159 160//160
f 158//158 161//161 159//159
f 158//158 162//162 161//161
f 163//163 164//164 165//165
f 163//163 165//165 166//166
f 167//167 164//164 163//163
f 161//161 162//162 168//168
f 169//169 168//168 162//162
f 161//161 166//166 170//170
f 170//170 166//166 171//171
f 170//170 159//159 161//161
f 165//165 171//171 166//166
f 172//172 158//158 160//160
f 165//165 164//164 171//171
f 162//162 158//158 169//169
f 166//166 161//161 173//173
f 161//161 168//168 173//173
f 163//163 166//166 173//173
f 170//170 174//174 159//159
f 160//160 159//159 174//174
f 175//175 176//176 177//177
f 175//175 177//177 178//178
f 179//179 178//178 177//177
f 173//173 168//168 180//180
f 180//180 168//168 181//181
f 182//182 183//183 178//178
f 178//178 179//179 184//184
f 178//178 184//184 182//182
f 170//170 171//171 185//185
f 170//170 185//185 174//174
f 186//186 160//160 174//174
f 187//187 160//160 186//186
f 160//160 187//187 172//172
f 188//188 172//172 187//187
f 176//176 175//175 188//188
f 158//158 172//172 169//169
f 172//172 188//188 183//183
f 188//188 175//175 183//183
f 175//175 178//178 183//183
f 183//183 169//169 172//172
f 189//189 179//179 177//177
f 169//169 183//183 190//190
f 181//181 168//168 191//191
f 168//168 169//169 191//191
f 173//173 167//167 163//163
f 169//169 190//190 191//191
f 183//183 182//182 190//190
f 192//192 182//182 184//184
f 193//193 184//184 179//179
f 194//194 192//192 184//184
f 184//184 193//193 194//194
f 192//192 194//194 195//195
f 196//196 185//185 171//171
f 174//174 197//197 186//186
f 188//188 198//198 176//176
f 176//176 199//199 177//177
f 198//198 188//188 187//187
f 164//164 167//167 200//200
f 181//181 201//201 180//180
f 173//173 202//202 167//167
f 180//180 201//201 203//203
f 180//180 204//204 173//173
f 205//205 190//190 182//182
f 203//203 204//204 180//180
f 192//192 205//205 182//182
f 205//205 192//192 206//206
f 207//207 205//205 206//206
f 194//194 193//193 208//208
f 207//207 206//206 209//209
f 195//195 206//206 192//192
f 206//206 195//195 209//209
f 208//208 195//195 194//194
f 209//209 195//195 210//210
f 197//197 174//174 185//185
f 176//176 198//198 199//199
f 177//177 199//199 211//211
f 212//212 171//171 164//164
f 171//171 212//212 196//196
f 213//213 197//197 185//185
f 177//177 211//211 189//189
f 164//164 200//200 212//212
f 181//181 191//191 214//214
f 205//205 191//191 190//190
f 215//215 179//179 189//189
f 167//167 202//202 200//200
f 202//202 173//173 204//204
f 191//191 216//216 217//217
f 191//191 205//205 216//216
f 204//204 203//203 218//218
f 179//179 215//215 193//193
f 203//203 219//219 218//218
f 218//218 219//219 207//207
f 217//217 207//207 219//219
f 216//216 207//207 217//217
f 207//207 216//216 205//205
f 193//193 220//220 208//208
f 221//221 210//210 195//195
f 187//187 222//222 198//198
f 213//213 185//185 196//196
f 223//223 189//189 211//211
f 196//196 224//224 213//213
f 213//213 214//214 197//197
f 213//213 224//224 201//201
f 213//213 201//201 181//181
f 213//213 181//181 214//214
f 224//224 225//225 201//201
f 203//203 201//201 225//225
f 217//217 214//214 191//191
f 225//225 219//219 203//203
f 223//223 215//215 189//189
f 218//218 226//226 204//204
f 215//215 220//220 193//193
f 218//218 207//207 227//227
f 207//207 209//209 227//227
f 209//209 210//210 228//228
f 195//195 208//208 221//221
f 229//229 221//221 208//208
f 197//197 230//230 186//186
f 186//186 222//222 187//187
f 212//212 231//231 196//196
f 196//196 231//231 224//224
f 232//232 212//212 200//200
f 232//232 200//200 233//233
f 200//200 202//202 233//233
f 202//202 226//226 233//233
f 202//202 204//204 226//226
f 219//219 234//234 217//217
f 228//228 227//227 209//209
f 235//235 228//228 210//210
f 221//221 235//235 210//210
f 198//198 236//236 199//199
f 197//197 214//214 230//230
f 237//237 230//230 214//214
f 231//231 212//212 238//238
f 212//212 232//232 238//238
f 239//239 224//224 231//231
f 224//224 239//239 225//225
f 237//237 225//225 239//239
f 225//225 237//237 234//234
f 214//214 217//217 234//234
f 225//225 234//234 219//219
f 226//226 240//240 233//233
f 226//226 218//218 241//241
f 218//218 227//227 241//241
f 208//208 220//220 229//229
f 221//221 229//229 235//235
f 242//242 186//186 230//230
f 186//186 242//242 222//222
f 236//236 198//198 222//222
f 199//199 236//236 211//211
f 243//243 231//231 238//238
f 237//237 214//214 234//234
f 215//215 244//244 220//220
f 229//229 220//220 244//244
f 245//245 211//211 236//236
f 230//230 246//246 242//242
f 245//245 223//223 211//211
f 231//231 243//243 239//239
f 239//239 243//243 237//237
f 232//232 247//247 238//238
f 215//215 223//223 248//248
f 232//232 233//233 247//247
f 233//233 240//240 247//247
f 241//241 240//240 226//226
f 249//249 235//235 250//250
f 235//235 229//229 250//250
f 242//242 251//251 222//222
f 230//230 237//237 246//246
f 251//251 242//242 246//246
f 246//246 237//237 252//252
f 245//245 253//253 223//223
f 215//215 248//248 244//244
f 240//240 254//254 247//247
f 255//255 241//241 227//227
f 228//228 255//255 227//227
f 228//228 249//249 255//255
f 250//250 229//229 244//244
f 228//228 235//235 249//249
f 243//243 252//252 237//237
f 252//252 256//256 246//246
f 256//256 257//257 246//246
f 238//238 254//254 243//243
f 243//243 254//254 252//252
f 253//253 248//248 223//223
f 238//238 247//247 254//254
f 258//258 254//254 240//240
f 240//240 241//241 258//258
f 259//259 258//258 241//241
f 244//244 260//260 250//250
f 261//261 222//222 251//251
f 222//222 261//261 236//236
f 262//262 236//236 261//261
f 236//236 262//262 245//245
f 246//246 257//257 251//251
f 253//253 245//245 263//263
f 254//254 258//258 252//252
f 260//260 244//244 248//248
f 255//255 249//249 264//264
f 264//264 249//249 265//265
f 249//249 250//250 265//265
f 251//251 266//266 261//261
f 257//257 266//266 251//251
f 267//267 257//257 256//256
f 268//268 260//260 248//248
f 248//248 253//253 268//268
f 269//269 259//259 241//241
f 241//241 264//264 269//269
f 253//253 270//270 268//268
f 241//241 255//255 264//264
f 268//268 271//271 260//260
f 272//272 250//250 260//260
f 260//260 273//273 272//272
f 268//268 270//270 271//271
f 260//260 271//271 273//273
f 257//257 274//274 266//266
f 274//274 257//257 267//267
f 258//258 259//259 252//252
f 252//252 269//269 275//275
f 252//252 275//275 256//256
f 252//252 259//259 269//269
f 253//253 263//263 270//270
f 272//272 265//265 250//250
f 261//261 276//276 262//262
f 262//262 277//277 245//245
f 267//267 256//256 275//275
f 278//278 275//275 269//269
f 269//269 264//264 279//279
f 269//269 279//279 278//278
f 264//264 265//265 279//279
f 272//272 280//280 265//265
f 270//270 281//281 271//271
f 281//281 273//273 271//271
f 262//262 276//276 277//277
f 266//266 274//274 282//282
f 267//267 283//283 274//274
f 263//263 284//284 270//270
f 284//284 281//281 270//270
f 279//279 265//265 285//285
f 280//280 285//285 265//265
f 272//272 273//273 280//280
f 261//261 266//266 276//276
f 245//245 277//277 263//263
f 278//278 279//279 286//286
f 279//279 285//285 287//287
f 273//273 288//288 280//280
f 273//273 281//281 288//288
f 275//275 289//289 267//267
f 267//267 289//289 283//283
f 278//278 286//286 275//275
f 275//275 286//286 289//289
f 287//287 286//286 279//279
f 281//281 284//284 290//290
f 287//287 285//285 291//291
f 281//281 292//292 288//288
f 281//281 290//290 292//292
f 288//288 292//292 293//293
f 274//274 283//283 282//282
f 284//284 294//294 290//290
f 286//286 287//287 295//295
f 285//285 280//280 296//296
f 280//280 288//288 293//293
f 287//287 291//291 295//295
f 285//285 296//296 291//291
f 291//291 296//296 297//297
f 293//293 292//292 298//298
f 276//276 266//266 282//282
f 299//299 263//263 277//277
f 263//263 299//299 284//284
f 289//289 300//300 283//283
f 289//289 286//286 301//301
f 286//286 295//295 301//301
f 293//293 296//296 280//280
f 290//290 298//298 292//292
f 293//293 298//298 302//302
f 303//303 276//276 282//282
f 303//303 304//304 276//276
f 277//277 276//276 304//304
f 277//277 304//304 299//299
f 282//282 283//283 303//303
f 283//283 300//300 305//305
f 301//301 295//295 306//306
f 306//306 295//295 307//307
f 295//295 291//291 307//307
f 296//296 293//293 297//297
f 297//297 308//308 291//291
f 297//297 293//293 302//302
f 302//302 308//308 297//297
f 303//303 283//283 305//305
f 294//294 284//284 299//299
f 300//300 289//289 306//306
f 306//306 289//289 301//301
f 290//290 294//294 302//302
f 307//307 308//308 309//309
f 308//308 307//307 291//291
f 290//290 302//302 298//298
f 300//300 306//306 305//305
f 310//310 306//306 307//307
f 307//307 309//309 310//310
f 302//302 309//309 308//308
f 309//309 302//302 294//294
f 303//303 311//311 304//304
f 299//299 304//304 311//311
f 311//311 303//303 305//305
f 311//311 305//305 312//312
f 312//312 309//309 299//299
f 309//309 294//294 299//299
f 312//312 310//310 309//309
f 305//305 306//306 310//310
f 305//305 310//310 312//312
f 311//311 312//312 299//299
# 624 faces, 0 coords texture

# End of File
